{
  "data": {
    "pokemons": {
      "count": 1126,
      "next": "https://pokeapi.co/api/v2/pokemon/?offset=21&limit=20",
      "previous": "https://pokeapi.co/api/v2/pokemon/?offset=0&limit=1",
      "nextOffset": 21,
      "prevOffset": 0,
      "status": true,
      "message": "",
      "results": [
        {
          "url": "https://pokeapi.co/api/v2/pokemon/2/",
          "name": "ivysaur",
          "image": "https://raw.githubusercontent.com/PokeAPI/sprites/master/sprites/pokemon/2.png",
          "artwork": "https://raw.githubusercontent.com/PokeAPI/sprites/master/sprites/pokemon/other/official-artwork/2.png",
          "dreamworld": "https://raw.githubusercontent.com/PokeAPI/sprites/master/sprites/pokemon/other/dream-world/2.svg"
        },
        {
          "url": "https://pokeapi.co/api/v2/pokemon/3/",
          "name": "venusaur",
          "image": "https://raw.githubusercontent.com/PokeAPI/sprites/master/sprites/pokemon/3.png",
          "artwork": "https://raw.githubusercontent.com/PokeAPI/sprites/master/sprites/pokemon/other/official-artwork/3.png",
          "dreamworld": "https://raw.githubusercontent.com/PokeAPI/sprites/master/sprites/pokemon/other/dream-world/3.svg"
        },
        {
          "url": "https://pokeapi.co/api/v2/pokemon/4/",
          "name": "charmander",
          "image": "https://raw.githubusercontent.com/PokeAPI/sprites/master/sprites/pokemon/4.png",
          "artwork": "https://raw.githubusercontent.com/PokeAPI/sprites/master/sprites/pokemon/other/official-artwork/4.png",
          "dreamworld": "https://raw.githubusercontent.com/PokeAPI/sprites/master/sprites/pokemon/other/dream-world/4.svg"
        },
        {
          "url": "https://pokeapi.co/api/v2/pokemon/5/",
          "name": "charmeleon",
          "image": "https://raw.githubusercontent.com/PokeAPI/sprites/master/sprites/pokemon/5.png",
          "artwork": "https://raw.githubusercontent.com/PokeAPI/sprites/master/sprites/pokemon/other/official-artwork/5.png",
          "dreamworld": "https://raw.githubusercontent.com/PokeAPI/sprites/master/sprites/pokemon/other/dream-world/5.svg"
        },
        {
          "url": "https://pokeapi.co/api/v2/pokemon/6/",
          "name": "charizard",
          "image": "https://raw.githubusercontent.com/PokeAPI/sprites/master/sprites/pokemon/6.png",
          "artwork": "https://raw.githubusercontent.com/PokeAPI/sprites/master/sprites/pokemon/other/official-artwork/6.png",
          "dreamworld": "https://raw.githubusercontent.com/PokeAPI/sprites/master/sprites/pokemon/other/dream-world/6.svg"
        },
        {
          "url": "https://pokeapi.co/api/v2/pokemon/7/",
          "name": "squirtle",
          "image": "https://raw.githubusercontent.com/PokeAPI/sprites/master/sprites/pokemon/7.png",
          "artwork": "https://raw.githubusercontent.com/PokeAPI/sprites/master/sprites/pokemon/other/official-artwork/7.png",
          "dreamworld": "https://raw.githubusercontent.com/PokeAPI/sprites/master/sprites/pokemon/other/dream-world/7.svg"
        },
        {
          "url": "https://pokeapi.co/api/v2/pokemon/8/",
          "name": "wartortle",
          "image": "https://raw.githubusercontent.com/PokeAPI/sprites/master/sprites/pokemon/8.png",
          "artwork": "https://raw.githubusercontent.com/PokeAPI/sprites/master/sprites/pokemon/other/official-artwork/8.png",
          "dreamworld": "https://raw.githubusercontent.com/PokeAPI/sprites/master/sprites/pokemon/other/dream-world/8.svg"
        },
        {
          "url": "https://pokeapi.co/api/v2/pokemon/9/",
          "name": "blastoise",
          "image": "https://raw.githubusercontent.com/PokeAPI/sprites/master/sprites/pokemon/9.png",
          "artwork": "https://raw.githubusercontent.com/PokeAPI/sprites/master/sprites/pokemon/other/official-artwork/9.png",
          "dreamworld": "https://raw.githubusercontent.com/PokeAPI/sprites/master/sprites/pokemon/other/dream-world/9.svg"
        },
        {
          "url": "https://pokeapi.co/api/v2/pokemon/10/",
          "name": "caterpie",
          "image": "https://raw.githubusercontent.com/PokeAPI/sprites/master/sprites/pokemon/10.png",
          "artwork": "https://raw.githubusercontent.com/PokeAPI/sprites/master/sprites/pokemon/other/official-artwork/10.png",
          "dreamworld": "https://raw.githubusercontent.com/PokeAPI/sprites/master/sprites/pokemon/other/dream-world/10.svg"
        },
        {
          "url": "https://pokeapi.co/api/v2/pokemon/11/",
          "name": "metapod",
          "image": "https://raw.githubusercontent.com/PokeAPI/sprites/master/sprites/pokemon/11.png",
          "artwork": "https://raw.githubusercontent.com/PokeAPI/sprites/master/sprites/pokemon/other/official-artwork/11.png",
          "dreamworld": "https://raw.githubusercontent.com/PokeAPI/sprites/master/sprites/pokemon/other/dream-world/11.svg"
        },
        {
          "url": "https://pokeapi.co/api/v2/pokemon/12/",
          "name": "butterfree",
          "image": "https://raw.githubusercontent.com/PokeAPI/sprites/master/sprites/pokemon/12.png",
          "artwork": "https://raw.githubusercontent.com/PokeAPI/sprites/master/sprites/pokemon/other/official-artwork/12.png",
          "dreamworld": "https://raw.githubusercontent.com/PokeAPI/sprites/master/sprites/pokemon/other/dream-world/12.svg"
        },
        {
          "url": "https://pokeapi.co/api/v2/pokemon/13/",
          "name": "weedle",
          "image": "https://raw.githubusercontent.com/PokeAPI/sprites/master/sprites/pokemon/13.png",
          "artwork": "https://raw.githubusercontent.com/PokeAPI/sprites/master/sprites/pokemon/other/official-artwork/13.png",
          "dreamworld": "https://raw.githubusercontent.com/PokeAPI/sprites/master/sprites/pokemon/other/dream-world/13.svg"
        },
        {
          "url": "https://pokeapi.co/api/v2/pokemon/14/",
          "name": "kakuna",
          "image": "https://raw.githubusercontent.com/PokeAPI/sprites/master/sprites/pokemon/14.png",
          "artwork": "https://raw.githubusercontent.com/PokeAPI/sprites/master/sprites/pokemon/other/official-artwork/14.png",
          "dreamworld": "https://raw.githubusercontent.com/PokeAPI/sprites/master/sprites/pokemon/other/dream-world/14.svg"
        },
        {
          "url": "https://pokeapi.co/api/v2/pokemon/15/",
          "name": "beedrill",
          "image": "https://raw.githubusercontent.com/PokeAPI/sprites/master/sprites/pokemon/15.png",
          "artwork": "https://raw.githubusercontent.com/PokeAPI/sprites/master/sprites/pokemon/other/official-artwork/15.png",
          "dreamworld": "https://raw.githubusercontent.com/PokeAPI/sprites/master/sprites/pokemon/other/dream-world/15.svg"
        },
        {
          "url": "https://pokeapi.co/api/v2/pokemon/16/",
          "name": "pidgey",
          "image": "https://raw.githubusercontent.com/PokeAPI/sprites/master/sprites/pokemon/16.png",
          "artwork": "https://raw.githubusercontent.com/PokeAPI/sprites/master/sprites/pokemon/other/official-artwork/16.png",
          "dreamworld": "https://raw.githubusercontent.com/PokeAPI/sprites/master/sprites/pokemon/other/dream-world/16.svg"
        },
        {
          "url": "https://pokeapi.co/api/v2/pokemon/17/",
          "name": "pidgeotto",
          "image": "https://raw.githubusercontent.com/PokeAPI/sprites/master/sprites/pokemon/17.png",
          "artwork": "https://raw.githubusercontent.com/PokeAPI/sprites/master/sprites/pokemon/other/official-artwork/17.png",
          "dreamworld": "https://raw.githubusercontent.com/PokeAPI/sprites/master/sprites/pokemon/other/dream-world/17.svg"
        },
        {
          "url": "https://pokeapi.co/api/v2/pokemon/18/",
          "name": "pidgeot",
          "image": "https://raw.githubusercontent.com/PokeAPI/sprites/master/sprites/pokemon/18.png",
          "artwork": "https://raw.githubusercontent.com/PokeAPI/sprites/master/sprites/pokemon/other/official-artwork/18.png",
          "dreamworld": "https://raw.githubusercontent.com/PokeAPI/sprites/master/sprites/pokemon/other/dream-world/18.svg"
        },
        {
          "url": "https://pokeapi.co/api/v2/pokemon/19/",
          "name": "rattata",
          "image": "https://raw.githubusercontent.com/PokeAPI/sprites/master/sprites/pokemon/19.png",
          "artwork": "https://raw.githubusercontent.com/PokeAPI/sprites/master/sprites/pokemon/other/official-artwork/19.png",
          "dreamworld": "https://raw.githubusercontent.com/PokeAPI/sprites/master/sprites/pokemon/other/dream-world/19.svg"
        },
        {
          "url": "https://pokeapi.co/api/v2/pokemon/20/",
          "name": "raticate",
          "image": "https://raw.githubusercontent.com/PokeAPI/sprites/master/sprites/pokemon/20.png",
          "artwork": "https://raw.githubusercontent.com/PokeAPI/sprites/master/sprites/pokemon/other/official-artwork/20.png",
          "dreamworld": "https://raw.githubusercontent.com/PokeAPI/sprites/master/sprites/pokemon/other/dream-world/20.svg"
        },
        {
          "url": "https://pokeapi.co/api/v2/pokemon/21/",
          "name": "spearow",
          "image": "https://raw.githubusercontent.com/PokeAPI/sprites/master/sprites/pokemon/21.png",
          "artwork": "https://raw.githubusercontent.com/PokeAPI/sprites/master/sprites/pokemon/other/official-artwork/21.png",
          "dreamworld": "https://raw.githubusercontent.com/PokeAPI/sprites/master/sprites/pokemon/other/dream-world/21.svg"
        }
      ]
    }
  }
}